Command: Locate File -- System32
	*File located*
Delete File

Delete File Y/N

Yes
I can do the best space fart. Mines Bigger than yours.
01001001 00100000 01100011 01100001 01101110 00100000 01100100 
01101111 00100000 01110100 01101000 01100101 00100000 01100010 
01100101 01110011 01110100 00100000 01110011 01110000 01100001 
01100011 01100101 00100000 01100110 01100001 01110010 01110100 
00101110 00100000 01001101 01101001 01101110 01100101 01110011 
00100000 01000010 01101001 01100111 01100111 01100101 01110010 
00100000 01110100 01101000 01100001 01101110 00100000 01111001 
01101111 01110101 01110010 01110011